[
  {
    "date": "$t('expereience[0].date')",
    "title": "ACII by Audensiel",
    "content": "Fullstack Java Vuejs developer",
    "options": {
      "dot": { "color": "acii_blue" },
      "details": [
        {
          "date": "2021 - Today",
          "title": "Mutuelle de Poitiers Assurances",
          "content": "Web app development",
          "skills": [
            {
              "label": "Vue 2",
              "class": "vue",
              "details": "We use Vuejs 2 with Options API and VueX coupled with some external libraries as Vue Property Decorator, Vue Class Component and Vuex Property Decorator"
            },
            {
              "label": "Java 8",
              "class": "java",
              "details": "We use Java EE 8 as our backend, coupled with Spring Boot and Hibernate"
            },
            {
              "label": "Spring",
              "class": "spring",
              "details": "We use Spring Boot 2 and Spring Security to build our apis"
            },
            {
              "label": "Agile",
              "class": "agile",
              "details": "The project was organized in sprints of 3 weeks with a weekly meeting and code reviews"
            }
          ]
        },
        {
          "date": "2021",
          "title": "Tempo",
          "content": "Web app development",
          "skills": [
            {
              "label": "Angular 11",
              "class": "angular",
              "details": "We used Angular 11 as our front-end. The goal was to familiarize with the most recent version at the time."
            },
            {
              "label": "Java 15",
              "class": "java",
              "details": "We used Java 15 coupled with Hibernate."
            },
            {
              "label": "Spring",
              "class": "spring",
              "details": "We used Spring Boot, MVC and Security to build our api stack."
            },
            {
              "label": "Agile",
              "class": "agile",
              "details": "The team had a strong turn-over due to the fact that it was a project we were working on between our missions. We needed to document it as much as possible for a fast start when entering the project. We had daily meetings, code review and merge requests and we worked in sprints of 2 weeks."
            }
          ]
        }
      ]
    }
  },
  {
    "date": "2020",
    "title": "Sopra Steria",
    "content": "Java Angular developer intern",
    "options": {
      "dot": { "color": "red" },
      "details": [
        {
          "date": "",
          "title": "",
          "content": "",
          "skills": [
            {
              "label": "Angular",
              "class": "angular",
              "details": "We migrated the existing applications from Flex to Angular 2."
            },
            {
              "label": "Java",
              "class": "java",
              "details": "We used Java 8 as our back end."
            },
            {
              "label": "Agile",
              "class": "agile",
              "details": "The project was reorganized in agile with daily meetings, code reviews and 3-weeks sprints."
            }
          ]
        }
      ]
    }
  },
  {
    "date": "2019",
    "title": "Sopra Steria",
    "content": "Java Flex developer intern",
    "options": {
      "dot": { "color": "red" },
      "details": [
        {
          "date": "",
          "title": "",
          "content": "",
          "skills": [
            {
              "label": "Flex",
              "class": "flex",
              "details": "The applications were developed using Flex as front-end"
            },
            {
              "label": "Java",
              "class": "java",
              "details": "The back end was developed using Java 8"
            }
          ]
        }
      ]
    }
  }
]
